{
  "page":1,
  "total_results":19785,
  "total_pages":990,
  "results":[
    {
      "vote_count":1196,
      "id":166428,
      "video":false,
      "vote_average":7.7,
      "title":"Dragons 3 : Le monde caché",
      "popularity":735.842,
      "poster_path":"\/lsifceBTpDx1KsdVtC2Xh1XQAgc.jpg",
      "original_language":"en",
      "original_title":"How to Train Your Dragon: The Hidden World",
      "genre_ids":[
        16,
        10751,
        12
      ],
      "backdrop_path":"\/h3KN24PrOheHVYs9ypuOIdFBEpX.jpg",
      "adult":false,
      "overview":"Ce qui avait commencé comme une amitié improbable entre un jeune Viking et un redoutable dragon Fury Nocturne est devenu une épique trilogie retraçant leurs vies. Dans ce nouveau chapitre, Harold et Krokmou vont enfin découvrir leurs véritables destinées : être le chef de Berk au côté d’Astrid et, en tant que dragon, être le leader de son espèce. Alors qu’ils réalisent leurs rêves de vivre en paix entre Vikings et dragons, une sombre menace planant sur le village et l’apparition d’une femelle Fury Nocturne vont mettre à mal leurs liens d’amitié comme jamais auparavant.",
      "release_date":"2019-01-03"
    },
    {
      "vote_count":3175,
      "id":299537,
      "video":false,
      "vote_average":7.2,
      "title":"Captain Marvel",
      "popularity":418.609,
      "poster_path":"\/3v6dxV5l6Zs2OcrAnIcuE9POeGY.jpg",
      "original_language":"en",
      "original_title":"Captain Marvel",
      "genre_ids":[
        28,
        12,
        878
      ],
      "backdrop_path":"\/w2PMyoyLU22YvrGK3smVM9fW1jj.jpg",
      "adult":false,
      "overview":"Captain Marvel raconte l’histoire de Carol Danvers qui va devenir l’une des super-héroïnes les plus puissantes de l’univers lorsque la Terre se révèle l’enjeu d’une guerre galactique entre deux races extraterrestres.",
      "release_date":"2019-03-06"
    },
    {
      "vote_count":550,
      "id":458723,
      "video":false,
      "vote_average":7.4,
      "title":"Us",
      "popularity":371.775,
      "poster_path":"\/5l4UPVn98JCL4oeIpDRHf6M5n3y.jpg",
      "original_language":"en",
      "original_title":"Us",
      "genre_ids":[
        53,
        27
      ],
      "backdrop_path":"\/jNUCddkM1fjYcFIcEwFjc7s2H4V.jpg",
      "adult":false,
      "overview":"Des parents emmènent leurs enfants dans leur maison secondaire près d'une plage afin de se détendre et de se déconnecter. Des amis les rejoignent. Au fur et à mesure que la nuit arrive, la sérénité se transforme en tension. Lorsque des invités - qui n'étaient pas prévus - se joignent au groupe, l'agitation palpable dégénère en chaos.",
      "release_date":"2019-03-14"
    },
    {
      "vote_count":229,
      "id":329996,
      "video":false,
      "vote_average":6.9,
      "title":"Dumbo",
      "popularity":257.134,
      "poster_path":"\/kCMKNfMK8TqeAqHVmRrv3EKWr4v.jpg",
      "original_language":"en",
      "original_title":"Dumbo",
      "genre_ids":[
        12,
        10751,
        14
      ],
      "backdrop_path":"\/JeQZJzWPyZFcTBMHIjxIWwPpIB.jpg",
      "adult":false,
      "overview":"Holt Farrier, une ancienne star du cirque, voit sa vie changer au retour de la guerre. Le gérant Max Medici engage le père de famille pour s'occuper de leur nouveau éléphanteau, Dumbo, dont les larges oreilles sont déjà une source de moquerie auprès des visiteurs. Mais quand les enfants de Holt découvrent que l'éléphant peut voler, l'entrepreneur très persuasif V.A. Vandevere et la trapéziste Colette Marchant entrent en piste afin de faire de Dumbo une véritable star.",
      "release_date":"2019-03-27"
    },
    {
      "vote_count":1665,
      "id":424783,
      "video":false,
      "vote_average":6.5,
      "title":"Bumblebee",
      "popularity":221.07,
      "poster_path":"\/jAWcwnGUhDn9SGSjhDFAbWmh9A7.jpg",
      "original_language":"en",
      "original_title":"Bumblebee",
      "genre_ids":[
        28,
        12,
        878
      ],
      "backdrop_path":"\/wtZj5nn6hVwgakPdg6y6gm3eFXU.jpg",
      "adult":false,
      "overview":"1987 - Alors qu'il est en fuite, l'Autobot Bumblebee trouve refuge dans la décharge d'une petite ville balnéaire de Californie. Il est découvert, brisé et couvert de blessures de guerre, par Charlie, une ado qui approche de ses 18 ans et cherche sa place dans le monde. Et quand elle le met en marche, elle se rend vite compte qu'il ne s'agit pas d'une voiture jaune ordinaire.",
      "release_date":"2018-12-15"
    },
    {
      "vote_count":34,
      "id":449985,
      "video":false,
      "vote_average":5.4,
      "title":"Triple Threat",
      "popularity":173.64,
      "poster_path":"\/cSpM3QxmoSLp4O1WAMQpUDcaB7R.jpg",
      "original_language":"en",
      "original_title":"Triple Threat",
      "genre_ids":[
        53,
        28
      ],
      "backdrop_path":"\/2f8fkWSWOVcTlWforoVpsuaCiwI.jpg",
      "adult":false,
      "overview":"Un contrat est mis sur la tête de la fille d'un multi-millionnaire par un syndicat du crime. Une équipe de mercenaires va tenter de les arrêter.",
      "release_date":"2019-03-19"
    },
    {
      "vote_count":1053,
      "id":504172,
      "video":false,
      "vote_average":6.5,
      "title":"La Mule",
      "popularity":159.329,
      "poster_path":"\/m2AjHGRH0ZbLDn1HhXlZRgdbDOd.jpg",
      "original_language":"en",
      "original_title":"The Mule",
      "genre_ids":[
        80,
        18,
        53
      ],
      "backdrop_path":"\/bTeRgkAavyw1eCtSkaww18wLYNP.jpg",
      "adult":false,
      "overview":"À plus de 80 ans, Earl Stone est aux abois. Il est non seulement fauché et seul, mais son entreprise risque d'être saisie. Il accepte alors un boulot qui – en apparence – ne lui demande que de faire le chauffeur. Sauf que, sans le savoir, il s'est engagé à être passeur de drogue pour un cartel mexicain.",
      "release_date":"2018-12-14"
    },
    {
      "vote_count":29,
      "id":390634,
      "video":false,
      "vote_average":4.6,
      "title":"劇場版「Fate\/stay night [Heaven's Feel] ⅠⅠ. lost butterfly」",
      "popularity":158.182,
      "poster_path":"\/4tS0iyKQBDFqVpVcH21MSJwXZdq.jpg",
      "original_language":"ja",
      "original_title":"劇場版「Fate\/stay night [Heaven's Feel] ⅠⅠ. lost butterfly」",
      "genre_ids":[
        16,
        28,
        14,
        12
      ],
      "backdrop_path":"\/2zKusjJZd8b2Cdk2C5K9dGFNWiJ.jpg",
      "adult":false,
      "overview":"",
      "release_date":"2019-01-12"
    },
    {
      "vote_count":12369,
      "id":299536,
      "video":false,
      "vote_average":8.3,
      "title":"Avengers : Infinity War",
      "popularity":143.496,
      "poster_path":"\/hSfuKPtyEryeFzapZ8UgZd4aESu.jpg",
      "original_language":"en",
      "original_title":"Avengers: Infinity War",
      "genre_ids":[
        12,
        28,
        14
      ],
      "backdrop_path":"\/bOGkgRGdhrBYJSLpXaxhXVstddV.jpg",
      "adult":false,
      "overview":"Les Avengers et leurs alliés devront être prêts à tout sacrifier pour neutraliser le redoutable Thanos avant que son attaque éclair ne conduise à la destruction complète de l’univers.",
      "release_date":"2018-04-25"
    },
    {
      "vote_count":2992,
      "id":324857,
      "video":false,
      "vote_average":8.5,
      "title":"Spider-Man : New Generation",
      "popularity":140.908,
      "poster_path":"\/jw9TRNYIMI1KsTjgQ3wVYSMXxlh.jpg",
      "original_language":"en",
      "original_title":"Spider-Man: Into the Spider-Verse",
      "genre_ids":[
        28,
        12,
        16,
        878,
        35
      ],
      "backdrop_path":"\/uUiId6cG32JSRI6RyBQSvQtLjz2.jpg",
      "adult":false,
      "overview":"SPIDER-MAN : NEW GENERATION présente Miles Morales, un adolescent vivant à Brooklyn, et révèle les possibilités illimitées du Spider-Verse, un univers où plus d’un peut porter le masque…",
      "release_date":"2018-12-07"
    },
    {
      "vote_count":1731,
      "id":399579,
      "video":false,
      "vote_average":6.6,
      "title":"Alita : Battle Angel",
      "popularity":133.11,
      "poster_path":"\/rV3itKLEALozktTGOCd1EE9vjG6.jpg",
      "original_language":"en",
      "original_title":"Alita: Battle Angel",
      "genre_ids":[
        28,
        878,
        53,
        12
      ],
      "backdrop_path":"\/aQXTw3wIWuFMy0beXRiZ1xVKtcf.jpg",
      "adult":false,
      "overview":"Au vingt-sixième siècle, un scientifique sauve Alita, une jeune cyborg inerte abandonnée dans une décharge. Ramenée à la vie, elle doit découvrir le mystère de ses origines et le monde complexe dans lequel elle se trouve, afin de protéger ses nouveaux amis contre les forces sombres lancées à sa poursuite.",
      "release_date":"2019-01-31"
    },
    {
      "vote_count":19,
      "id":176147,
      "video":false,
      "vote_average":6.3,
      "title":"Heimliche Liebe - Der Schüler und die Postbotin",
      "popularity":131.194,
      "poster_path":"\/tfwE0iAHwfWJSblD95P43jlB0vH.jpg",
      "original_language":"de",
      "original_title":"Heimliche Liebe - Der Schüler und die Postbotin",
      "genre_ids":[
        18,
        10749
      ],
      "backdrop_path":"\/dzsQp9dACxYMJZ4LhLqw3zSY5rV.jpg",
      "adult":false,
      "overview":"Un écolier de 17 ans tombe amoureux d'une femme de 37 ans. Comme si cela ne suffisait pas, ils sont de classes sociales différentes et elle est mariée.\r C'est un film d'amour entre un garçon d'école et une femme d'âge moyen, qui travaille comme post-femme. Ce film est en grande partie copié et refait à Bollywood au nom de 'Ek Chhotisi Love Story' qui signifie 'une petite histoire d'amour'. J'ai vu ce film, l'allemand, la nuit dernière dans une chaîne autrichienne. C'est dommage que je ne puisse pas terminer le film, mais le sujet semble être intéressant et frais, illustrant clairement ce qui se passe lorsque l'amour devient folle pour quelqu'un, indépendamment des différences sociales. Je ne pouvais pas comprendre quand un réalisateur ou un scénariste sélectionne ne fait que répéter le film précédemment remplacé au lieu de créer un tout nouveau, ayant sa propre saveur. Il pourrait être des petites choses dans notre vie, très commun. Il faut qu'il soit dramatique et merveilleux.",
      "release_date":"2005-11-28"
    },
    {
      "vote_count":4994,
      "id":297802,
      "video":false,
      "vote_average":6.8,
      "title":"Aquaman",
      "popularity":127.954,
      "poster_path":"\/mODmCg1OpvGbDKHq15Mlf9sfaAY.jpg",
      "original_language":"en",
      "original_title":"Aquaman",
      "genre_ids":[
        28,
        12,
        14,
        878
      ],
      "backdrop_path":"\/9QusGjxcYvfPD1THg6oW3RLeNn7.jpg",
      "adult":false,
      "overview":"Personnage légendaire depuis 70 ans, Aquaman est le Roi des Sept Mers, régnant à contrecœur sur Atlantis. Pris en étau entre les Terriens qui détruisent constamment la mer et les habitants d'Atlantis prêts à se révolter, Aquaman doit protéger la planète tout entière…",
      "release_date":"2018-12-07"
    },
    {
      "vote_count":495,
      "id":512196,
      "video":false,
      "vote_average":6.1,
      "title":"Happy Birthdead 2 You",
      "popularity":115.909,
      "poster_path":"\/8RDe0l0kKp1q5T4GWUgqHCGgiHv.jpg",
      "original_language":"en",
      "original_title":"Happy Death Day 2U",
      "genre_ids":[
        27,
        9648,
        53,
        878,
        35
      ],
      "backdrop_path":"\/dhNJHBDacrZjSPtwaiwp3idpzxU.jpg",
      "adult":false,
      "overview":"La suite de Happy Death Day, Tree va découvrir que revivre la journée de sa mort était bien plus facile que les dangers qui l'attendent..",
      "release_date":"2019-02-13"
    },
    {
      "vote_count":211,
      "id":464504,
      "video":false,
      "vote_average":5.6,
      "title":"A Madea Family Funeral",
      "popularity":114.815,
      "poster_path":"\/bOiHlY5JD8GLp7BvWdHkfEftzhQ.jpg",
      "original_language":"en",
      "original_title":"A Madea Family Funeral",
      "genre_ids":[
        35
      ],
      "backdrop_path":"\/piGjUloiaq6qTpaDLisyDyEsx9i.jpg",
      "adult":false,
      "overview":"Une joyeuse réunion de famille devient un cauchemar hilarant alors que Madea et son équipage se rendent en Géorgie dans l’arrière-pays. Ils se retrouvent en train de planifier des funérailles qui pourraient révéler des secrets de famille désagréables.",
      "release_date":"2019-03-01"
    },
    {
      "vote_count":1809,
      "id":450465,
      "video":false,
      "vote_average":6.5,
      "title":"Glass",
      "popularity":111.043,
      "poster_path":"\/dsNbFPtMdtcvmTcfAXGsZeG6FwK.jpg",
      "original_language":"en",
      "original_title":"Glass",
      "genre_ids":[
        53,
        9648,
        18,
        14
      ],
      "backdrop_path":"\/lvjscO8wmpEbIfOEZi92Je8Ktlg.jpg",
      "adult":false,
      "overview":"Peu de temps après les événements relatés dans Split, David Dunn - l’homme incassable - poursuit sa traque de La Bête, surnom donné à Kevin Crumb depuis qu’on le sait capable d’endosser 23 personnalités différentes. De son côté, le mystérieux homme souffrant du syndrome des os de verre Elijah Price suscite à nouveau l’intérêt des forces de l’ordre en affirmant détenir des informations capitales sur les deux hommes…",
      "release_date":"2019-01-16"
    },
    {
      "vote_count":104,
      "id":450001,
      "video":false,
      "vote_average":5,
      "title":"Master Z : The Ip Man Legacy",
      "popularity":107.618,
      "poster_path":"\/2WfjB6FUDTIBVI2y02UGbnHR82s.jpg",
      "original_language":"cn",
      "original_title":"葉問外傳：張天志",
      "genre_ids":[
        28
      ],
      "backdrop_path":"\/grtVFGJ4ts0nDAPpc1JWbBoVKTu.jpg",
      "adult":false,
      "overview":"Après avoir été vaincu par le Maître Ip Man, Cheung Tin Chi, blessé dans son orgueil, mène une vie modeste, se consacrant à son épicerie et à l’éducation de son fils. En voulant secourir son ex-fiancée, le challenger de Ip va devenir la cible des triades de Hong-Kong, menées par le cruel Kit Kang et sa soeur Kwan. Il devra affronter le funeste Owen Davidson, un homme d’affaires américain au coeur du commerce de l’héroïne pour vaincre tous ses ennemis, sauver sa fierté et gagner le respect de ses pairs…",
      "release_date":"2018-12-20"
    },
    {
      "vote_count":7139,
      "id":920,
      "video":false,
      "vote_average":6.7,
      "title":"Cars : Quatre Roues",
      "popularity":103.579,
      "poster_path":"\/fyrloXDASNAzHL98bWGuNW5UuJJ.jpg",
      "original_language":"en",
      "original_title":"Cars",
      "genre_ids":[
        16,
        12,
        35,
        10751
      ],
      "backdrop_path":"\/a1MlbLBk5Sy6YvMbSuKfwGlDVlb.jpg",
      "adult":false,
      "overview":"Flash McQueen, une splendide voiture de course toute neuve promise au succès, découvre que dans la vie, ce n'est pas de franchir la ligne d'arrivée qui compte, mais le parcours que l'on a suivi. Parti pour participer à la prestigieuse Piston Cup, il atterrit suite à une déviation dans la petite ville tranquille de Radiator Springs, sur la Route 66.",
      "release_date":"2006-06-08"
    },
    {
      "vote_count":4152,
      "id":338952,
      "video":false,
      "vote_average":6.9,
      "title":"Les animaux fantastiques - Les crimes de Grindelwald",
      "popularity":99.394,
      "poster_path":"\/9kC0guEMrYAXWN1sgNtY6ki1Gb8.jpg",
      "original_language":"en",
      "original_title":"Fantastic Beasts: The Crimes of Grindelwald",
      "genre_ids":[
        10751,
        14,
        12
      ],
      "backdrop_path":"\/wDN3FIcQQ1HI7mz1OOKYHSQtaiE.jpg",
      "adult":false,
      "overview":"1927 : Quelques mois après sa capture, le célèbre sorcier Gellert Grindelwald s'évade comme il l'avait promis et de façon spectaculaire. Réunissant de plus en plus de partisans, il est à l'origine d'attaque d'humains normaux par des sorciers et seul celui qu'il considérait autrefois comme un ami, Albus Dumbledore, semble capable de l'arrêter. Mais Dumbledore va devoir faire appel au seul sorcier ayant déjoué les plans de Grindelwald auparavant : son ancien élève Norbert Dragonneau. L'aventure qui les attend réunit Norbert avec Tina, Queenie et Jacob, mais cette mission va également tester la loyauté de chacun face aux nouveaux dangers qui se dressent sur leur chemin, dans un monde magique plus dangereux et divisé que jamais.",
      "release_date":"2018-11-14"
    },
    {
      "vote_count":8,
      "id":543103,
      "video":false,
      "vote_average":4.8,
      "title":"仮面ライダー平成ジェネレーションズFOREVER",
      "popularity":98.98,
      "poster_path":"\/6sOFQDlkY6El1B2P5gklzJfVdsT.jpg",
      "original_language":"ja",
      "original_title":"仮面ライダー平成ジェネレーションズFOREVER",
      "genre_ids":[
        28,
        12,
        878
      ],
      "backdrop_path":"\/uufTqD2CSn1NqL3cXEl4Vp3bCav.jpg",
      "adult":false,
      "overview":"",
      "release_date":"2018-12-22"
    }
  ]
}