{
  "results":[

    {
      "vote_count":0,
      "id":299534,
      "video":false,
      "vote_average":0,
      "title":"Avengers : Endgame",
      "popularity":78.509,
      "poster_path":"\/bJLYrLIHT1r7cikhWGbpZkxlUpA.jpg",
      "original_language":"en",
      "original_title":"Avengers: Endgame",
      "genre_ids":[
        12,
        878,
        28
      ],
      "backdrop_path":"\/orjiB3oUIsyz60hoEqkiGpy5CeO.jpg",
      "adult":false,
      "overview":"Après leur défaite face au Titan Thanos qui dans le film précédent s'est approprié toutes les pierres du Gant de l'infini , les Avengers et les Gardiens de la Galaxie ayant survécu à son claquement de doigts qui a pulvérisé « la moitié de toute forme de vie dans l'Univers », Captain America, Thor, Bruce Banner, Natasha Romanoff, War Machine, Tony Stark, Nébula et Rocket, vont essayer de trouver une solution pour ramener leurs coéquipiers disparus et vaincre Thanos en se faisant aider par Ronin alias Clint Barton, Captain Marvel et Ant-Man.",
      "release_date":"2019-04-24"
    },
    {
      "vote_count":30,
      "id":438674,
      "video":false,
      "vote_average":6.5,
      "title":"Dragged Across Concrete",
      "popularity":69.349,
      "poster_path":"\/fVG4a27ImyPS4vvNMjCtan3QhDl.jpg",
      "original_language":"en",
      "original_title":"Dragged Across Concrete",
      "genre_ids":[
        18,
        80,
        28,
        53
      ],
      "backdrop_path":"\/sZUbg9K8zGiUmeVYSlUNelVcuzM.jpg",
      "adult":false,
      "overview":"Les méthodes de deux policiers sont dénoncées et les deux hommes se retrouvent suspendus. Sans argent et sans autre solution, ils rejoignent le monde des gangsters, mais réalisent que ce qui les y attendait dépasse largement ce qu’ils pensaient y trouver.",
      "release_date":"2019-02-21"
    },
    {
      "vote_count":898,
      "id":429197,
      "video":false,
      "vote_average":7.2,
      "title":"Vice",
      "popularity":68.097,
      "poster_path":"\/gohAvPyJVQfsfLUkd9wAfHjvqle.jpg",
      "original_language":"en",
      "original_title":"Vice",
      "genre_ids":[
        18,
        36,
        35
      ],
      "backdrop_path":"\/7TTlvADXSxg0yzlGTZFExmw4TSC.jpg",
      "adult":false,
      "overview":"Fin connaisseur des arcanes de la politique américaine, Dick Cheney a réussi, sans faire de bruit, à se faire élire vice-président aux côtés de George W. Bush. Devenu l’homme le plus puissant du pays, il a largement contribué à imposer un nouvel ordre mondial dont on sent encore les conséquences aujourd’hui…",
      "release_date":"2018-12-25"
    },
    {
      "vote_count":46,
      "id":429471,
      "video":false,
      "vote_average":4.5,
      "title":"Captive State",
      "popularity":67.535,
      "poster_path":"\/wB24P3QGGoAkEyBzTEb5s4lFY7N.jpg",
      "original_language":"en",
      "original_title":"Captive State",
      "genre_ids":[
        53,
        878
      ],
      "backdrop_path":"\/6IZ84KFhNpy6htsJmwFVuK30pyp.jpg",
      "adult":false,
      "overview":"Les extraterrestres ont envahi la Terre. Occupée, Chicago se divise entre les collaborateurs qui ont juré allégeance à l'envahisseur et les rebelles qui les combattent dans la clandestinité depuis dix ans.",
      "release_date":"2019-03-15"
    },
    {
      "vote_count":99,
      "id":508763,
      "video":false,
      "vote_average":6.8,
      "title":"L'Incroyable Aventure de Bella",
      "popularity":63.432,
      "poster_path":"\/gHJ9Wieo7Uwg9yI9aTVeo4l62e2.jpg",
      "original_language":"en",
      "original_title":"A Dog's Way Home",
      "genre_ids":[
        18,
        10751,
        12
      ],
      "backdrop_path":"\/w7MsyOpP003FYhsiTgVHa3rNsrz.jpg",
      "adult":false,
      "overview":"L'incroyable voyage d'un chien prêt à parcourir plus de 600 km pour retrouver son maître, un jeune étudiant en médecine.",
      "release_date":"2019-01-10"
    },
    {
      "vote_count":145,
      "id":351044,
      "video":false,
      "vote_average":6.6,
      "title":"Bienvenue à Marwen",
      "popularity":62.791,
      "poster_path":"\/3hJy049Cf9iU8xUBJEXDGJUV7Jk.jpg",
      "original_language":"en",
      "original_title":"Welcome to Marwen",
      "genre_ids":[
        18,
        35,
        14
      ],
      "backdrop_path":"\/q9hnJ9SzwcF30seRtXEzLd5l1gw.jpg",
      "adult":false,
      "overview":"L'histoire de Mark Hogancamp, victime d'une amnésie totale après avoir été sauvagement agressé, et qui, en guise de thérapie, se lance dans la construction de la réplique d'un village belge durant la Seconde Guerre mondiale, mettant en scène les figurines des habitants en les identifiant à ses proches, ses agresseurs ou lui-même.",
      "release_date":"2018-12-21"
    },
    {
      "vote_count":181,
      "id":527641,
      "video":false,
      "vote_average":8.2,
      "title":"Five Feet Apart",
      "popularity":58.066,
      "poster_path":"\/kreTuJBkUjVWePRfhHZuYfhNE1T.jpg",
      "original_language":"en",
      "original_title":"Five Feet Apart",
      "genre_ids":[
        10749,
        18
      ],
      "backdrop_path":"\/d7wa3VpUpKDQ7GG9EMw8zSJCFoI.jpg",
      "adult":false,
      "overview":"Stella Grant, dix-sept ans, est atteinte par la fibrose kystique. Elle a passé une grande partie de sa vie entre les quatres murs de sa chambre d'hôpital. C'est dans ce contexte, qu'elle tombe amoureuse de Will Newman, également atteint de la mucoviscidose. Leurs états de santé respectifs les empêchent de s'approcher trop près l'un de l'autre. De plus, Stella doit tenter de raisonner son amoureux qui ne veut plus prendre ses traitements médicaux.",
      "release_date":"2019-03-15"
    },
    {
      "vote_count":49,
      "id":287947,
      "video":false,
      "vote_average":7,
      "title":"Shazam!",
      "popularity":51.945,
      "poster_path":"\/xnopI5Xtky18MPhK40cZAGAOVeV.jpg",
      "original_language":"en",
      "original_title":"Shazam!",
      "genre_ids":[
        28,
        35,
        12,
        14
      ],
      "backdrop_path":"\/zORJw1HJ632rjdz0cUSjWlEiSyy.jpg",
      "adult":false,
      "overview":"On a tous un super-héros qui sommeille au fond de soi… il faut juste un peu de magie pour le réveiller. Pour Billy Batson, gamin débrouillard de 14 ans lacé dans une famille d'accueil, il suffit de crier \"Shazam !\" pour se transformer en super-héros. Ado dans un corps d'adulte sculpté à la perfection, Shazam s'éclate avec ses tout nouveaux superpouvoirs. Est-il capable de voler ? De voir à travers n'importe quel type de matière ? De faire jaillir la foudre de ses mains ? Et de sauter son examen de sciences sociales ? Shazam repousse les limites de ses facultés avec l'insouciance d'un enfant. Mais il lui faudra maîtriser rapidement ses pouvoirs pour combattre les forces des ténèbres du Dr Thaddeus Sivana…",
      "release_date":"2019-03-23"
    },
    {
      "vote_count":108,
      "id":445629,
      "video":false,
      "vote_average":6.2,
      "title":"Une famille sur le ring",
      "popularity":50.013,
      "poster_path":"\/3TZCBAdKQiz0cGKGEjZiyZUA01O.jpg",
      "original_language":"en",
      "original_title":"Fighting with My Family",
      "genre_ids":[
        35,
        18
      ],
      "backdrop_path":"\/mYKP6qcDUimVMAHQWLOuDHjO19S.jpg",
      "adult":false,
      "overview":"Un ancien lutteur et sa famille gagnent leur vie en se produisant dans de petites salles à travers le pays, tandis que ses enfants rêvent de rejoindre le World Wrestling Entertainment.",
      "release_date":"2019-02-14"
    },
    {
      "vote_count":63,
      "id":454294,
      "video":false,
      "vote_average":5.9,
      "title":"Alex, le destin d'un roi",
      "popularity":43.375,
      "poster_path":"\/8Ko9WXEN57KorUEhTnL8Jk3H5y2.jpg",
      "original_language":"en",
      "original_title":"The Kid Who Would Be King",
      "genre_ids":[
        28,
        12,
        14,
        10751
      ],
      "backdrop_path":"\/jmbgxBd86MshzQQvv5laKvOKoMm.jpg",
      "adult":false,
      "overview":"Alex est un écolier ordinaire de 12 ans dont la vie va être bouleversée par la découverte de l’épée mythique Excalibur. Il doit à présent former une équipe de chevaliers composée de ses amis, de ses ennemis et du légendaire Merlin l’Enchanteur, afin de contrer la maléfique Morgane, venue du Moyen-Age pour détruire le monde. Alex devra alors se transformer en un héros qu’il n’a jamais rêvé de devenir.\"",
      "release_date":"2019-01-16"
    },
    {
      "vote_count":283,
      "id":438650,
      "video":false,
      "vote_average":5.2,
      "title":"Sang Froid",
      "popularity":38.574,
      "poster_path":"\/kLxQKOtFmUdFl3x7lnvhii1Enfy.jpg",
      "original_language":"en",
      "original_title":"Cold Pursuit",
      "genre_ids":[
        53,
        28,
        18
      ],
      "backdrop_path":"\/7Wg6FOEvhduISlxSzSCutAl4lPq.jpg",
      "adult":false,
      "overview":"Bienvenue à Kehoe, luxueuse station de ski du Colorado.  La police locale n’y est pas franchement très sollicitée jusqu’au jour où le fils d’un conducteur de chasse-neige, Nels Coxman, est assassiné sur ordre de Viking, un baron de la drogue. Armé d’une rage implacable et d’une artillerie lourde, Nels entreprend de démanteler le cartel de Viking. Sa quête de justice va rapidement se transformer en une vengeance sans pitié. Alors que les associés de Viking « disparaissent » les uns après les autres, Nels passe d’un citoyen modèle à un justicier au sang-froid, qui ne laisse rien - ni personne - se mettre en travers de son chemin.",
      "release_date":"2019-02-07"
    },
    {
      "vote_count":2,
      "id":157433,
      "video":false,
      "vote_average":8,
      "title":"Simetierre",
      "popularity":34.595,
      "poster_path":"\/pJukqzxJxkkGlzCuNvHe66C4ce5.jpg",
      "original_language":"en",
      "original_title":"Pet Sematary",
      "genre_ids":[
        27,
        53
      ],
      "backdrop_path":"\/n2aX63BmW7zIKgKJ58e6rKlSsdi.jpg",
      "adult":false,
      "overview":"Une famille déménage à la campagne, près d’un cimetière pour animaux. Adapté du roman de Stephen King.",
      "release_date":"2019-04-04"
    },
    {
      "vote_count":560,
      "id":361292,
      "video":false,
      "vote_average":7.2,
      "title":"Suspiria",
      "popularity":33.194,
      "poster_path":"\/tmPhFQBUsxMuDUmGr0ysKTZAQEg.jpg",
      "original_language":"en",
      "original_title":"Suspiria",
      "genre_ids":[
        53,
        9648,
        27,
        14
      ],
      "backdrop_path":"\/AmO8I38bkHwKhgxPNrd6djBQyPU.jpg",
      "adult":false,
      "overview":"Une jeune américaine, danseuse de ballet, voyage jusqu'à une prestigieuse école de Berlin avant de découvrir un mystère qui dépasse toute imagination parmi une série de meurtres atroces...",
      "release_date":"2018-10-11"
    },
    {
      "vote_count":100,
      "id":394741,
      "video":false,
      "vote_average":6.9,
      "title":"Stan et Ollie",
      "popularity":32.99,
      "poster_path":"\/ku6NKSZ7JNPwr0Q7FdN0Gq25IlP.jpg",
      "original_language":"en",
      "original_title":"Stan & Ollie",
      "genre_ids":[
        35,
        18
      ],
      "backdrop_path":"\/6oyC0KcZPx9aqA1WkXtkfA1txXU.jpg",
      "adult":false,
      "overview":"1953, Laurel et Hardy, le plus grand duo comique de tous les temps, se lancent dans une tournée à travers l’Angleterre.  Désormais vieillissants et oubliés des plus jeunes, ils peinent à faire salle comble. Mais leurs capacités à se faire rire mutuellement et à se réinventer vont leur permettre de reconquérir le public, et renouer avec le succès.  Même si le spectre du passé et de nouvelles épreuves ébranlent la solidité de leur duo, cette tournée est l’occasion unique de réaliser à quel point, humainement, ils comptent l’un pour l’autre…",
      "release_date":"2018-12-28"
    },
    {
      "vote_count":12,
      "id":441384,
      "video":false,
      "vote_average":4.6,
      "title":"The Beach Bum",
      "popularity":30.974,
      "poster_path":"\/iXMxdC7T0t3dxislnUNybcvJmAH.jpg",
      "original_language":"en",
      "original_title":"The Beach Bum",
      "genre_ids":[
        35
      ],
      "backdrop_path":"\/sJspZTaLdaoiQcy5S5ZWcQkLLGM.jpg",
      "adult":false,
      "overview":"Garçon à l'esprit rebelle, Moondog n'obéit à aucune règle, sinon les siennes !  Alors qu'il pensait s'être constitué un petit trésor de guerre, son butin se volatilise. Mais Moondog est de la trempe des survivants et il renaîtra une nouvelle fois de ses cendres…",
      "release_date":"2019-03-21"
    },
    {
      "vote_count":82,
      "id":401200,
      "video":false,
      "vote_average":6.9,
      "title":"Kursk",
      "popularity":25.081,
      "poster_path":"\/6c4b0CHDMJACK140lR4QYDVpEhi.jpg",
      "original_language":"en",
      "original_title":"Kursk",
      "genre_ids":[
        18,
        36
      ],
      "backdrop_path":"\/tpn4FbxL6oeZh8YtanV1a0k7dLB.jpg",
      "adult":false,
      "overview":"Kursk relate le naufrage du sous-marin nucléaire russe K-141 Koursk, survenu en mer de Barents le 12 août 2000. Tandis qu’à bord du navire endommagé, vingt-trois marins se battent pour survivre, au sol, leurs familles luttent désespérément contre les blocages bureaucratiques qui ne cessent de compromettre l’espoir de les sauver.",
      "release_date":"2018-11-07"
    }
  ],
  "page":1,
  "total_results":345,
  "dates":{
    "maximum":"2019-04-27",
    "minimum":"2019-03-31"
  },
  "total_pages":18
}